Holday travels
…
total_travel |> 
    mutate(std_travel = scale(total_os) |> as.numeric()) |> 
    filter(std_travel > 2)

# A tibble: 452 × 5
   iso3   year month total_os std_travel
   <chr> <dbl> <dbl>    <dbl>      <dbl>
 1 AUS    2017    12   14038.       2.01
 2 BRA    2010    12   14645.       2.12
 3 BRA    2011     1   15627.       2.31
 4 BRA    2011     3   14437.       2.08
 5 BRA    2011     4   14824.       2.16
 6 BRA    2011     5   14345.       2.06
 7 BRA    2011     7   16700.       2.52
 8 BRA    2011     8   15297.       2.25
 9 BRA    2011     9   15205.       2.23
10 BRA    2011    10   15179.       2.22
# ℹ 442 more rows

total_travel |> 
    mutate(std_travel = scale(total_os) |> as.numeric()) |> 
    filter(iso3 == "USA")

# A tibble: 96 × 5
   iso3   year month total_os std_travel
   <chr> <dbl> <dbl>    <dbl>      <dbl>
 1 USA    2010     1     95.4     -0.658
 2 USA    2010     2     87.8     -0.659
 3 USA    2010     3    112.      -0.655
 4 USA    2010     4    108.      -0.656
 5 USA    2010     5    112.      -0.655
 6 USA    2010     6    117.      -0.654
 7 USA    2010     7    123.      -0.653
 8 USA    2010     8    120.      -0.653
 9 USA    2010     9    104.      -0.656
10 USA    2010    10    113.      -0.655
# ℹ 86 more rows
